{
		"viewBox": "0 0 53.5 50.96900177001953",
		"symbol": [
			{"path":{"d":"M1199.95,492.875a1.081,1.081,0,0,0,1.57-1.139l-2.93-17.114,12.43-12.115a1.082,1.082,0,0,0-.6-1.842l-17.18-2.486-7.69-15.579a1.075,1.075,0,0,0-1.93,0l-7.7,15.57-17.17,2.5a1.082,1.082,0,0,0-.6,1.842l12.44,12.115-2.94,17.114a1.083,1.083,0,0,0,1.57,1.139l15.37-8.083Z", "transform":"translate(-1157.84 -442.031)"}}
		]
}