{
		"viewBox": "0 0 23.030000686645508 20.9689998626709",
		"symbol": [
			{"path":{"d":"M1498.66,609.55a19.223,19.223,0,0,1,1.92,1.24,22.086,22.086,0,0,1,2.42,2.058c0.25,0.246.86,0.9,0.9,0.946a0.434,0.434,0,0,1,0,.548c-0.04.051-.65,0.7-0.9,0.946a22.086,22.086,0,0,1-2.42,2.058,13.875,13.875,0,0,1-8.09,3.015,11.355,11.355,0,0,1-3.77-.671l1.56-1.592a4.479,4.479,0,0,0,2.21.585,4.566,4.566,0,0,0,4.52-4.615,4.722,4.722,0,0,0-.57-2.25Zm-2.41-1.1a11.3,11.3,0,0,0-3.76-.671,13.85,13.85,0,0,0-8.09,3.015,22.223,22.223,0,0,0-2.43,2.058c-0.25.246-.85,0.9-0.89,0.946a0.41,0.41,0,0,0,0,.548c0.04,0.051.64,0.7,0.89,0.946a22.223,22.223,0,0,0,2.43,2.058,19.235,19.235,0,0,0,1.92,1.241l2.22-2.269a4.639,4.639,0,0,1,3.95-6.865,4.413,4.413,0,0,1,2.2.585Zm-3.66,7.3a1.66,1.66,0,0,0,1.54-1.57Zm-0.21-3.35a1.658,1.658,0,0,0-1.53,1.57Zm9.27-8.27-19.73,20.136a0.428,0.428,0,0,0,0,.594,0.405,0.405,0,0,0,.58,0l19.73-20.137a0.409,0.409,0,0,0,0-.593A0.4,0.4,0,0,0,1501.65,604.123Z", "transform":"translate(-1480.97 -604.031)"}}
		]
}