{
		"viewBox": "0 0 11.90999984741211 10.970000267028809",
		"symbol": [
			{"path":{"d":"M1124.46,1079.97a0.235,0.235,0,0,0,.35-0.24l-0.65-3.69,2.77-2.62a0.227,0.227,0,0,0-.14-0.39l-3.82-.54-1.71-3.36a0.245,0.245,0,0,0-.43,0l-1.72,3.36-3.82.54a0.225,0.225,0,0,0-.13.39l2.77,2.62-0.66,3.69a0.239,0.239,0,0,0,.35.24l3.42-1.74Z", "transform":"translate(-1115.09 -1069.03)"}}
		]
}