{
		"viewBox": "0 0 22.309999465942383 30.760000228881836",
		"symbol": [
			{"path":{"d":"M9.945,0.06c2-0.2,4,0.1,5.8,0.9c1.8,0.8,3.4,2.1,4.6,3.8c1,1.5,1.7,3.3,1.9,5.1   c0.1,0.8,0.1,1.7-0.1,2.5c-0.3,1.5-0.8,2.9-1.5,4.2c-1,2.2-2.3,4.3-3.6,6.4c-1.7,2.6-3.4,5.1-5.3,7.5c-0.3,0.4-1,0.4-1.3,0   c-1.5-2-2.9-4-4.3-6c-1.2-1.9-2.4-3.8-3.5-5.7c-0.6-1.2-1.2-2.4-1.7-3.6c-0.6-1.5-1.1-3.2-0.9-4.8c0.2-2.4,1.1-4.7,2.7-6.5   C4.545,1.66,7.245,0.36,9.945,0.06 M10.045,2.56c-1.5,0.2-3,0.9-4.2,1.8c-1.4,1.1-2.4,2.6-2.9,4.3c-0.5,1.8-0.4,3.7,0.2,5.5   c0.7,1.9,2.2,3.5,3.9,4.5c1.6,0.9,3.4,1.2,5.2,1c1.7-0.2,3.3-0.9,4.6-2.1c1.3-1.2,2.3-2.8,2.7-4.5c0.4-1.8,0.2-3.7-0.5-5.4   c-0.8-1.8-2.2-3.3-4-4.2C13.545,2.66,11.745,2.36,10.045,2.56 M10.745,6.26c0.9-0.1,1.9,0.1,2.7,0.5c1,0.5,1.9,1.5,2.3,2.6   c0.4,1.1,0.4,2.4,0,3.5c-0.6,1.6-2.1,2.8-3.8,3c-1.1,0.2-2.2-0.1-3.2-0.6c-1-0.6-1.7-1.5-2.1-2.6c-0.4-1.2-0.3-2.5,0.2-3.7   C7.545,7.56,9.045,6.46,10.745,6.26L10.745,6.26z"}}
		]
}